<?xml version="1.0" encoding="UTF-8" standalone="no"?>
<!-- Created with Inkscape (http://www.inkscape.org/) -->

<svg
   xmlns:dc="http://purl.org/dc/elements/1.1/"
   xmlns:cc="http://creativecommons.org/ns#"
   xmlns:rdf="http://www.w3.org/1999/02/22-rdf-syntax-ns#"
   xmlns:svg="http://www.w3.org/2000/svg"
   xmlns="http://www.w3.org/2000/svg"
   xmlns:sodipodi="http://sodipodi.sourceforge.net/DTD/sodipodi-0.dtd"
   xmlns:inkscape="http://www.inkscape.org/namespaces/inkscape"
   width="512.00006"
   height="512"
   id="svg2"
   version="1.1"
   inkscape:version="0.48.2 r9819"
   sodipodi:docname="tt-rss_logo.svg"
   inkscape:export-filename="D:\Dropbox\Dropbox\tt-rss\tt-rss_logo.png"
   inkscape:export-xdpi="45"
   inkscape:export-ydpi="45">
  <defs
     id="defs4">
    <filter
       id="filter3022"
       inkscape:label="Darken edges"
       inkscape:menu="Shadows and Glows"
       inkscape:menu-tooltip="Darken the edges with an inner blur"
       color-interpolation-filters="sRGB">
      <feOffset
         id="feOffset3024"
         dx="4"
         dy="4"
         result="result11"
         in="SourceGraphic" />
      <feGaussianBlur
         id="feGaussianBlur3026"
         stdDeviation="4"
         result="result8" />
      <feComposite
         id="feComposite3028"
         in2="result8"
         result="result9"
         in="SourceGraphic"
         operator="in" />
      <feBlend
         id="feBlend3030"
         in2="result8"
         in="result9"
         mode="darken"
         result="fbSourceGraphic" />
      <feColorMatrix
         result="fbSourceGraphicAlpha"
         in="fbSourceGraphic"
         values="0 0 0 -1 0 0 0 0 -1 0 0 0 0 -1 0 0 0 0 1 0"
         id="feColorMatrix3066" />
      <feGaussianBlur
         id="feGaussianBlur3068"
         result="result6"
         stdDeviation="1.5"
         in="fbSourceGraphic" />
      <feComposite
         id="feComposite3070"
         in2="result6"
         operator="atop"
         in="fbSourceGraphic"
         result="result8" />
      <feComposite
         id="feComposite3072"
         in2="fbSourceGraphicAlpha"
         in="result8"
         operator="atop"
         result="fbSourceGraphic" />
      <feColorMatrix
         result="fbSourceGraphicAlpha"
         in="fbSourceGraphic"
         values="0 0 0 -1 0 0 0 0 -1 0 0 0 0 -1 0 0 0 0 1 0"
         id="feColorMatrix3082" />
      <feGaussianBlur
         id="feGaussianBlur3084"
         result="result6"
         stdDeviation="1.5"
         in="fbSourceGraphic" />
      <feComposite
         id="feComposite3086"
         in2="result6"
         operator="atop"
         in="fbSourceGraphic"
         result="result8" />
      <feComposite
         id="feComposite3088"
         in2="fbSourceGraphicAlpha"
         in="result8"
         operator="atop"
         result="fbSourceGraphic" />
      <feColorMatrix
         result="fbSourceGraphicAlpha"
         in="fbSourceGraphic"
         values="0 0 0 -1 0 0 0 0 -1 0 0 0 0 -1 0 0 0 0 1 0"
         id="feColorMatrix3098" />
      <feGaussianBlur
         id="feGaussianBlur3100"
         result="result6"
         stdDeviation="1.5"
         in="fbSourceGraphic" />
      <feComposite
         id="feComposite3102"
         in2="result6"
         operator="atop"
         in="fbSourceGraphic"
         result="result8" />
      <feComposite
         id="feComposite3104"
         in2="fbSourceGraphicAlpha"
         in="result8"
         operator="atop"
         result="result9" />
    </filter>
    <filter
       id="filter3032"
       inkscape:label="Darken edges"
       inkscape:menu="Shadows and Glows"
       inkscape:menu-tooltip="Darken the edges with an inner blur"
       color-interpolation-filters="sRGB">
      <feOffset
         id="feOffset3034"
         dx="4"
         dy="4"
         result="result11"
         in="SourceGraphic" />
      <feGaussianBlur
         id="feGaussianBlur3036"
         stdDeviation="4"
         result="result8" />
      <feComposite
         id="feComposite3038"
         in2="result8"
         result="result9"
         in="SourceGraphic"
         operator="in" />
      <feBlend
         id="feBlend3040"
         in2="result8"
         in="result9"
         mode="darken"
         result="fbSourceGraphic" />
      <feColorMatrix
         result="fbSourceGraphicAlpha"
         in="fbSourceGraphic"
         values="0 0 0 -1 0 0 0 0 -1 0 0 0 0 -1 0 0 0 0 1 0"
         id="feColorMatrix3074" />
      <feGaussianBlur
         id="feGaussianBlur3076"
         result="result6"
         stdDeviation="1.5"
         in="fbSourceGraphic" />
      <feComposite
         id="feComposite3078"
         in2="result6"
         operator="atop"
         in="fbSourceGraphic"
         result="result8" />
      <feComposite
         id="feComposite3080"
         in2="fbSourceGraphicAlpha"
         in="result8"
         operator="atop"
         result="fbSourceGraphic" />
      <feColorMatrix
         result="fbSourceGraphicAlpha"
         in="fbSourceGraphic"
         values="0 0 0 -1 0 0 0 0 -1 0 0 0 0 -1 0 0 0 0 1 0"
         id="feColorMatrix3090" />
      <feGaussianBlur
         id="feGaussianBlur3092"
         result="result6"
         stdDeviation="1.5"
         in="fbSourceGraphic" />
      <feComposite
         id="feComposite3094"
         in2="result6"
         operator="atop"
         in="fbSourceGraphic"
         result="result8" />
      <feComposite
         id="feComposite3096"
         in2="fbSourceGraphicAlpha"
         in="result8"
         operator="atop"
         result="fbSourceGraphic" />
      <feColorMatrix
         result="fbSourceGraphicAlpha"
         in="fbSourceGraphic"
         values="0 0 0 -1 0 0 0 0 -1 0 0 0 0 -1 0 0 0 0 1 0"
         id="feColorMatrix3106" />
      <feGaussianBlur
         id="feGaussianBlur3108"
         result="result6"
         stdDeviation="1.5"
         in="fbSourceGraphic" />
      <feComposite
         id="feComposite3110"
         in2="result6"
         operator="atop"
         in="fbSourceGraphic"
         result="result8" />
      <feComposite
         id="feComposite3112"
         in2="fbSourceGraphicAlpha"
         in="result8"
         operator="atop"
         result="result9" />
    </filter>
  </defs>
  <sodipodi:namedview
     id="base"
     pagecolor="#ffffff"
     bordercolor="#666666"
     borderopacity="1.0"
     inkscape:pageopacity="0.0"
     inkscape:pageshadow="2"
     inkscape:zoom="2.8"
     inkscape:cx="117.89256"
     inkscape:cy="406.43138"
     inkscape:document-units="px"
     inkscape:current-layer="g2996"
     showgrid="false"
     inkscape:window-width="1680"
     inkscape:window-height="988"
     inkscape:window-x="-8"
     inkscape:window-y="182"
     inkscape:window-maximized="1"
     fit-margin-top="0"
     fit-margin-left="0"
     fit-margin-right="0"
     fit-margin-bottom="0" />
  <metadata
     id="metadata7">
    <rdf:RDF>
      <cc:Work
         rdf:about="">
        <dc:format>image/svg+xml</dc:format>
        <dc:type
           rdf:resource="http://purl.org/dc/dcmitype/StillImage" />
        <dc:title></dc:title>
      </cc:Work>
    </rdf:RDF>
  </metadata>
  <g
     inkscape:label="Layer 1"
     inkscape:groupmode="layer"
     id="layer1"
     transform="translate(-126.14285,-187.79076)">
    <g
       id="g2996"
       transform="translate(-49.285712,-20)">
      <path
         style="fill:#f18d36"
         d="m 232.98927,718.20986 c -19.50028,-4.37476 -35.62256,-15.61695 -46.47452,-32.40704 -13.21078,-20.43964 -14.57653,-48.13318 -3.48357,-70.63707 13.31831,-27.01841 43.90289,-43.41201 73.44772,-39.36863 9.8579,1.34911 19.80673,4.6208 27.58623,9.07178 3.04625,1.74288 5.9518,3.75201 7.02496,4.69044 1.21004,1.05812 1.33241,-6.41858 1.97583,-10.26858 0.64342,-3.85 5.07592,-18.17254 7.79679,-32.29325 l 5.55366,-25.23013 -4.05958,-3.17938 c -4.65137,-3.64286 -30.83968,-16.71669 -43.42823,-21.34489 -21.80245,-8.0157 -46.69794,-13.00094 -70.64483,-14.14639 l -12.85517,-0.6149 0,-51.99684 0,-51.99684 17.25,0.59981 c 24.73896,0.86021 50.41847,4.74801 74.21192,11.23545 5.26544,1.43566 10.97211,2.70618 11.49731,2.18098 0.7527,-0.7527 6.02162,-17.22422 16.12083,-52.84261 2.34006,-8.25305 1.25452,-7.54864 -17.74552,-12.33865 -26.55083,-6.69359 -54.85692,-10.66276 -86.08454,-12.07106 l -15.25,-0.68775 0,-53.38677 0,-53.38678 7.03865,0 c 11.35755,0 40.41327,1.90444 54.46135,3.56963 45.52685,5.39654 93.57068,17.80302 133.5,34.47405 6.875,2.8704 16.89502,6.63342 18.71479,7.30764 2.11416,0.78329 27.09414,-4.40442 69.56946,-13.22202 37.55354,-7.79588 62.81699,-13.22586 63.62595,-12.91543 0.87928,0.33741 1.97794,0.55833 1.98097,2.51997 0.003,1.80477 -3.06213,21.42548 -9.43451,47.2283 -12.4827,50.54452 -17.75074,53.39544 -12.33,56.51186 1.43066,0.82249 22.58977,0.96004 51.99453,2.809 l 36.06536,2.26776 0.31049,3.21152 c 0.17886,1.8501 -1.321,7.78947 -6.28357,25.5073 -4.73789,16.91568 -6.49039,31.41795 -6.20938,32.53593 0.28101,1.11798 3.74677,6.53269 7.70169,12.03269 51.98412,72.29289 85.04905,151.92597 96.85323,237.6618 2.00503,14.56289 4.42313,47.42743 4.43306,60.25 l 0.008,10.25 -53.30843,0 -53.30843,0 -1.18733,-21.28146 c -0.65304,-11.7048 -1.86715,-26.43575 -2.69804,-32.73546 -9.44235,-71.59091 -36.80417,-137.54919 -80.81715,-194.81744 -9.73997,-12.67334 -20.82744,-25.82744 -22.68744,-25.82744 -3.15141,9.95555 -7.47693,26.47112 -10.44732,37.8861 -5.66962,22.27818 -8.42283,35.11643 -7.99847,36.45348 0.37277,1.17449 6.77401,12.45499 11.75572,20.74659 4.9817,8.2916 12.79846,22.80971 17.37057,32.26248 4.57212,9.45276 9.34529,18.24217 9.84317,18.54988 0.49788,0.30771 8.67905,-1.1601 18.39863,-3.91657 9.71958,-2.75646 16.39381,-5.37825 16.90503,-5.06229 1.99201,1.23113 0.42774,6.8719 -8.16824,41.75965 l -8.02629,32.57565 1.85852,23.77485 c 0.82259,10.52284 1.50456,23.74448 1.50844,29.38198 l 0.007,10.25 -52,0 -52,0 -0.0153,-7.25 c -0.008,-3.9875 -0.47219,-11.14792 -0.87627,-11.74516 -0.42655,-0.63045 -7.7589,0.57086 -17.91902,-0.10716 -18.10935,-1.2085 -30.54031,-3.48322 -41.74746,-7.24064 -9.82868,-3.29526 -21.04223,-8.79359 -27.74238,-13.87452 -3.3,-2.50249 -8.16024,-7.52875 -8.57718,-6.96304 -0.37232,0.74423 -2.54699,5.99302 -4.49855,9.43052 -9.78471,17.23482 -24.25715,28.88553 -43.12383,34.71587 -9.39745,2.90407 -25.4889,3.57337 -34.93929,1.45323 z m 212.93929,-43.99528 c 15.75208,-2.38873 37.32558,-7.42693 38.59661,-8.64209 0.46145,-0.44117 4.96945,-11.23336 8.16583,-23.98265 4.26603,-17.01575 4.3465,-24.82187 3.43929,-25.17 -0.67975,-0.26085 -7.95894,-1.52431 -14.78703,-0.33844 -15.5871,2.7071 -31.55268,2.07289 -40.67159,-1.17361 -11.63537,-4.14242 -16.23648,-10.7457 -19.16116,-22.09236 -3.52417,-13.67245 -4.31336,-15.21092 20.58994,-113.76706 9.03336,-35.75 15.43889,-65.70707 16.1073,-66.87119 l 0.56689,-0.98731 44.44719,-1.01015 c 28.60649,-0.65014 46.31497,0.3915 46.68816,-0.21235 0.8802,-1.42418 14.40245,-50.35063 14.40245,-52.08768 0,-1.2824 -7.21018,-1.8567 -47.05309,-1.8567 -33.87771,0 -43.36614,0.32798 -43.6507,-0.52572 -0.21214,-0.6364 4.2773,-20.5536 10.74816,-46.7297 6.47086,-26.17611 12.03446,-48.63296 12.0549,-49.59546 0.0234,-1.10323 -2.73217,-4.02285 -4.00982,-4.02285 -3.14629,0 -100.4721,19.18978 -101.25278,20.01279 -0.38064,0.40128 -4.93165,20.22871 -10.26767,41.12871 -5.33601,20.9 -10.36513,37.13922 -10.86717,38.09344 -0.82937,1.57637 -1.30036,2.87316 -27.76043,2.88389 l -30.88824,0.0125 -7.60901,23.87373 c -4.16856,13.0791 -6.09425,25.95146 -6.0948,26.63896 -7.8e-4,0.97132 7.86037,3.64911 30.41934,3.64911 26.0234,0 26.57143,-1.47102 27.13741,0.004 0.34727,0.90497 -7.22769,34.92597 -17.75921,77.6085 -10.53153,42.68253 -20.41149,81.75334 -21.49246,86.97834 -5.61279,27.12986 -6.8956,48.54246 1.47956,65.13355 8.45822,16.75565 34.69903,31.44066 62.35586,35.19397 11.91932,1.61757 50.18928,0.27068 66.12627,-2.14609 z"
         id="path3002"
         inkscape:connector-curvature="0"
         inkscape:export-filename="C:\Users\tschinz\Desktop\tt-rss_logo.png"
         inkscape:export-xdpi="75"
         inkscape:export-ydpi="75"
         sodipodi:nodetypes="cssssssscssscccsssssscccsssssscssscsssssscccsssccssssscscssccccsssscsscccsssssssscscsscscssssscsssssssssc" />
      <path
         style="fill:#2d4364"
         d="m 384.34813,701.04801 c -43.8707,-5.13481 -70.552,-20.56115 -84.5678,-48.89457 -7.8169,-15.80228 -11.0926,-35.80482 -9.3671,-57.19855 1.1932,-14.79282 2.7017,-21.68393 20.5753,-93.99122 8.5909,-34.75438 15.3504,-63.89188 15.0211,-64.75 -0.5221,-1.36041 -4.0927,-1.56198 -27.8801,-1.57388 -28.3261,-0.0142 -31.7814,-0.29602 -31.7814,-2.59227 0,-1.39634 23.7771,-85.96347 26.6104,-94.64408 l 1.5503,-4.75 28.1697,-0.0153 c 15.4933,-0.008 28.6903,-0.34664 29.3267,-0.75159 0.6364,-0.40495 5.2931,-16.93556 10.3483,-36.73468 5.0551,-19.79913 9.7778,-36.92767 10.4947,-38.06342 0.869,-1.37664 3.0864,-2.40181 6.6517,-3.07538 2.9415,-0.55571 37.4461,-7.6958 76.6768,-15.86688 53.7431,-11.19375 71.5151,-14.55472 72.0851,-13.63247 1.1923,1.92922 0.174,6.66954 -12.4302,57.86173 -6.53,26.5221 -11.5232,48.5721 -11.0959,49 0.4273,0.4279 21.3274,1.003 46.4447,1.278 l 45.6677,0.5 -0.2852,3.68567 c -0.1569,2.02712 -4.5,18.67712 -9.6513,37 -14.1193,50.22107 -16.4074,57.92135 -17.6594,59.42997 -0.9469,1.14088 -8.9981,1.38705 -45.7765,1.39967 -24.5452,0.008 -45.1365,0.34592 -45.7586,0.75 -0.622,0.40408 -4.3268,13.55969 -8.2329,29.23469 -3.906,15.675 -10.6778,42.45 -15.0485,59.5 -13.3792,52.19299 -15.0814,63.65732 -10.0559,67.72673 8.0677,6.53287 29.2796,4.57565 67.3149,-6.21113 9.7271,-2.75858 17.9033,-5.0156 18.1695,-5.0156 1.8057,0 -0.8915,13.31633 -11.1401,55 -6.9057,28.08739 -12.332,48.19317 -13.2773,49.19609 -3.2193,3.41554 -34.3801,10.72365 -61.0987,14.32945 -11.7984,1.59225 -51.7357,2.83631 -60,1.86903 z m 61.5,-28.35834 c 17.3614,-2.66713 36.543,-6.6792 37.7623,-7.89846 0.5036,-0.50368 3.531,-11.34701 6.7273,-24.0963 4.8173,-19.21447 5.5617,-23.27645 4.3506,-23.74119 -0.8036,-0.30837 -5.1464,0.20467 -9.6506,1.14009 -4.5043,0.93541 -13.8146,1.94232 -20.6896,2.23756 -19.7411,0.84778 -31.4514,-2.82488 -40.2656,-12.62841 -9.3399,-10.38825 -10.5489,-20.78071 -5.3572,-46.04952 3.5147,-17.10697 36.7827,-149.83165 38.0833,-151.93615 0.4492,-0.72683 15.218,-1.06385 46.62,-1.06385 l 45.9624,0 0.9558,-2.25 c 1.4162,-3.33371 13.0013,-45.3906 13.0013,-47.19807 0,-1.38008 -5.0937,-1.55193 -46,-1.55193 l -46,0 0,-2.35118 c 0,-1.29315 5.1957,-23.40675 11.5461,-49.14134 6.3504,-25.73458 11.3966,-47.51405 11.2138,-48.39881 -0.1828,-0.88477 -0.9911,-1.51856 -1.7961,-1.40842 -6.1479,0.84106 -98.5263,20.47054 -99.0797,21.05342 -0.3897,0.41048 -5.0262,17.62133 -10.3034,38.24633 -5.2771,20.625 -10.0288,38.50568 -10.5594,39.73485 -0.9631,2.23126 -1.0117,2.23528 -30.2207,2.5 l -29.256,0.26515 -6.7624,24 c -3.7193,13.2 -6.7668,24.5625 -6.7723,25.25 -0.01,0.97152 6.4577,1.25 29.0215,1.25 24.6347,0 29.1169,0.22288 29.5961,1.47166 0.701,1.8268 0.3696,3.24096 -21.0961,90.02834 -20.3592,82.31365 -21.817,89.40912 -21.7792,106 0.05,21.72602 5.1724,36.61492 16.4877,47.91876 10.3494,10.33906 27.7908,17.75091 48.2601,20.50854 12.137,1.6351 50.1335,0.5464 66,-1.89107 z"
         id="path2998"
         inkscape:connector-curvature="0" />
    </g>
  </g>
</svg>
